…
``` r
results <- left_join(total_jobs_by_worksetting, total_jobs)
```

    ## Joining with `by = join_by(employee_residence)`

``` r
# results$proportion <- results$total_jobs_by_worksetting / results$total_jobs

results %>% mutate(proportion = total_jobs_by_worksetting / total_jobs)
```

    ## # A tibble: 145 × 5
    ## # Groups:   employee_residence [83]
    ##    employee_residence work_setting total_jobs_by_workset…¹ total_jobs proportion
    ##    <chr>              <chr>                          <int>      <int>      <dbl>
    ##  1 Algeria            Hybrid                             1          1      1    
    ##  2 American Samoa     Hybrid                             1          1      1    
    ##  3 Andorra            Hybrid                             1          1      1    
    ##  4 Argentina          Remote                             9          9      1    
    ##  5 Armenia            In-person                          1          2      0.5  
    ##  6 Armenia            Remote                             1          2      0.5  
    ##  7 Australia          Hybrid                             4         21      0.190
    ##  8 Australia          In-person                          9         21      0.429
    ##  9 Australia          Remote                             8         21      0.381
    ## 10 Austria            Hybrid                             3          6      0.5  
    ## # ℹ 135 more rows
    ## # ℹ abbreviated name: ¹​total_jobs_by_worksetting
…
``` r
# table(df$employment_type)
x <- df %>% filter(employment_type == "Full-time")
summary(x$salary_in_usd)
```

    ##    Min. 1st Qu.  Median    Mean 3rd Qu.    Max. 
    ##   15000  106500  144000  150630  187000  450000

``` r
df %>% group_by(employee_residence) %>% summarize(median_by_residence = median(salary_in_usd), how_many_employess = n())
```

    ## # A tibble: 83 × 3
    ##    employee_residence     median_by_residence how_many_employess
    ##    <chr>                                <dbl>              <int>
    ##  1 Algeria                            100000                   1
    ##  2 American Samoa                      45555                   1
    ##  3 Andorra                             50745                   1
    ##  4 Argentina                           60000                   9
    ##  5 Armenia                             33500                   2
    ##  6 Australia                          114979                  21
    ##  7 Austria                             68060.                  6
    ##  8 Belgium                             83398.                  6
    ##  9 Bolivia                             75000                   2
    ## 10 Bosnia and Herzegovina             120000                   1
    ## # ℹ 73 more rows
…
